{
	"$schema": "https://biomejs.dev/schemas/1.5.3/schema.json",
	"organizeImports": {
		"enabled": true
	},
	"linter": {
		"enabled": true,
		"rules": {
			"recommended": true
		}
	},
  "formatter": {
    "enabled": true,
    "formatWithErrors": false,
    "indentStyle": "space",
    "indentWidth": 2,
    "lineWidth": 80,
    "lineEnding": "lf",
    "ignore": []
  }
}
